{
	"info": {
		"_postman_id": "c87a69e2-19f8-4ba5-b920-6d7f05962e41",
		"name": "Prueba",
		"schema": "https://schema.getpostman.com/json/collection/v2.1.0/collection.json"
	},
	"item": [
		{
			"name": "Buscar Id Pares",
			"request": {
				"method": "GET",
				"header": [
					{
						"key": "Content-Type",
						"name": "Content-Type",
						"value": "application/json",
						"type": "text"
					}
				],
				"url": {
					"raw": "http://localhost:3000/usuario/?id_like=^-?\\d*[02468]$",
					"protocol": "http",
					"host": [
						"localhost"
					],
					"port": "3000",
					"path": [
						"usuario",
						""
					],
					"query": [
						{
							"key": "id_like",
							"value": "^-?\\d*[02468]$"
						}
					]
				}
			},
			"response": []
		},
		{
			"name": "Buscar el ultimo Id",
			"request": {
				"method": "GET",
				"header": [],
				"url": {
					"raw": "http://localhost:3000/colegio?_sort=id&_order=desc&_start=0&_end=1",
					"protocol": "http",
					"host": [
						"localhost"
					],
					"port": "3000",
					"path": [
						"colegio"
					],
					"query": [
						{
							"key": "_sort",
							"value": "id"
						},
						{
							"key": "_order",
							"value": "desc"
						},
						{
							"key": "_start",
							"value": "0"
						},
						{
							"key": "_end",
							"value": "1"
						}
					]
				}
			},
			"response": []
		}
	],
	"protocolProfileBehavior": {}
}